{
  "project_info": {
    "project_number": "568888786825",
    "firebase_url": "https://my-film-927cb.firebaseio.com",
    "project_id": "my-film-927cb",
    "storage_bucket": "my-film-927cb.appspot.com"
  },
  "client": [
    {
      "client_info": {
        "mobilesdk_app_id": "1:568888786825:android:c7fb4fe5d62983f3",
        "android_client_info": {
          "package_name": "com.khoiron.myfilm"
        }
      },
      "oauth_client": [
        {
          "client_id": "568888786825-mi86ruc5i9qj8c9v1iv7f6g403sh0s0h.apps.googleusercontent.com",
          "client_type": 1,
          "android_info": {
            "package_name": "com.khoiron.myfilm",
            "certificate_hash": "812d797ee2f62bf6604afb96c25f60f13e58129a"
          }
        },
        {
          "client_id": "568888786825-askvf5rbqdm4rkjefs9q5cqv5i618nsn.apps.googleusercontent.com",
          "client_type": 3
        }
      ],
      "api_key": [
        {
          "current_key": "AIzaSyDGW7axOVjikI9E56wXH3IjUtd7KJNslFA"
        }
      ],
      "services": {
        "analytics_service": {
          "status": 1
        },
        "appinvite_service": {
          "status": 2,
          "other_platform_oauth_client": [
            {
              "client_id": "568888786825-askvf5rbqdm4rkjefs9q5cqv5i618nsn.apps.googleusercontent.com",
              "client_type": 3
            }
          ]
        },
        "ads_service": {
          "status": 2
        }
      }
    }
  ],
  "configuration_version": "1"
}